{
  "baseUrl": "https://firepoker.io/",
  "ignoreTestFiles": ["*.js", "*.md"],
  "reporter": "junit",
  "reporterOptions": {
    "mochaFile": "test-results/test-output-[hash].xml"
  },
  "chromeWebSecurity": false
}
